<svg width="25" height="25" viewBox="0 0 25 25" fill="none" xmlns="http://www.w3.org/2000/svg">
<mask id="mask0_2168_48" style="mask-type:luminance" maskUnits="userSpaceOnUse" x="0" y="-1" width="25" height="26">
<path d="M24.4999 24.4998V0.499828H0.5V24.4998H24.4999Z" fill="white" stroke="white"/>
</mask>
<g mask="url(#mask0_2168_48)">
<path d="M12.5001 5.43936L15.4424 2.49703C15.9838 1.95568 16.8614 1.95568 17.4028 2.49703L17.4037 2.49791C17.6636 2.7579 17.8096 3.11048 17.8096 3.47811C17.8096 3.84574 17.6636 4.19832 17.4037 4.45831L15.6559 6.20601L16.6191 5.24283C16.7478 5.11409 16.9006 5.01197 17.0688 4.94229C17.237 4.87262 17.4173 4.83676 17.5993 4.83676C17.7814 4.83676 17.9616 4.87262 18.1298 4.94229C18.298 5.01197 18.4508 5.11409 18.5796 5.24283L18.5804 5.24366C18.7091 5.37237 18.8112 5.52518 18.8809 5.69337C18.9506 5.86155 18.9865 6.04181 18.9865 6.22385C18.9865 6.4059 18.9506 6.58616 18.8809 6.75434C18.8112 6.92253 18.7091 7.07534 18.5804 7.20405L17.2071 8.57739L17.7959 7.98857C17.9246 7.85985 18.0774 7.75774 18.2456 7.68807C18.4138 7.61841 18.5941 7.58255 18.7761 7.58255C18.9581 7.58255 19.1384 7.61841 19.3066 7.68807C19.4747 7.75774 19.6275 7.85985 19.7563 7.98857L19.7572 7.98945C20.0171 8.24942 20.1632 8.602 20.1632 8.96965C20.1632 9.33729 20.0171 9.68988 19.7572 9.94984L18.3839 11.3231L18.9727 10.7343C19.2327 10.4744 19.5852 10.3284 19.9529 10.3284C20.3205 10.3284 20.6731 10.4744 20.9331 10.7343L20.9339 10.7352C21.4752 11.2766 21.4752 12.1542 20.9339 12.6956L15.963 17.6666C15.2526 18.3769 14.2892 18.7759 13.2847 18.7759H11.7156L7.00854 23.4829" stroke="white" stroke-width="1.5" stroke-miterlimit="10" stroke-linecap="round" stroke-linejoin="round"/>
<path d="M4.45921 13.0887C4.71921 13.3486 5.07178 13.4946 5.43941 13.4946C5.80704 13.4946 6.15962 13.3486 6.41961 13.0887L6.42049 13.0878C6.68041 12.8278 6.82643 12.4753 6.82643 12.1076C6.82643 11.74 6.68041 11.3874 6.42049 11.1274L6.02737 10.7343C5.76741 10.4744 5.41482 10.3283 5.04718 10.3283C4.67953 10.3283 4.32694 10.4744 4.06698 10.7343L4.0661 10.7352C3.80617 10.9952 3.66016 11.3478 3.66016 11.7154C3.66016 12.083 3.80617 12.4356 4.0661 12.6956L4.45921 13.0887Z" stroke="white" stroke-width="1.5" stroke-miterlimit="10" stroke-linecap="round" stroke-linejoin="round"/>
<path d="M6.42047 11.1274C6.54919 11.2561 6.702 11.3582 6.87018 11.4279C7.03837 11.4976 7.21862 11.5334 7.40067 11.5334C7.58271 11.5334 7.76297 11.4976 7.93115 11.4279C8.09934 11.3582 8.25215 11.2561 8.38086 11.1274L8.38174 11.1265C8.64168 10.8665 8.78771 10.514 8.78771 10.1463C8.78771 9.77869 8.64168 9.42611 8.38174 9.16613L7.20411 7.98855C7.07539 7.85981 6.92258 7.7577 6.7544 7.68803C6.58621 7.61836 6.40596 7.5825 6.22391 7.5825C6.04187 7.5825 5.86161 7.61836 5.69343 7.68803C5.52524 7.7577 5.37243 7.85981 5.24372 7.98855L5.24284 7.98938C4.98292 8.24937 4.83691 8.60194 4.83691 8.96957C4.83691 9.3372 4.98292 9.68978 5.24284 9.94977L6.42047 11.1274Z" stroke="white" stroke-width="1.5" stroke-miterlimit="10" stroke-linecap="round" stroke-linejoin="round"/>
<path d="M8.3818 9.16625C8.92316 9.7076 9.80084 9.7076 10.3422 9.16625L10.343 9.16537C10.8844 8.62406 10.8844 7.74633 10.343 7.20498L8.38093 5.24287C7.83962 4.70152 6.96189 4.70152 6.42053 5.24287L6.41965 5.24375C5.87835 5.78506 5.87835 6.66279 6.41965 7.2041L8.3818 9.16625Z" stroke="white" stroke-width="1.5" stroke-miterlimit="10" stroke-linecap="round" stroke-linejoin="round"/>
<path d="M10.3429 7.20484C10.6029 7.4648 10.9555 7.61084 11.3231 7.61084C11.6908 7.61084 12.0434 7.4648 12.3033 7.20484L12.3042 7.20396C12.5641 6.94398 12.7102 6.5914 12.7102 6.22376C12.7102 5.85612 12.5641 5.50354 12.3042 5.24356L9.94982 2.88922C9.8211 2.7605 9.66829 2.65839 9.50011 2.58873C9.33193 2.51906 9.15168 2.4832 8.96964 2.4832C8.78761 2.4832 8.60735 2.51906 8.43917 2.58873C8.271 2.65839 8.11819 2.7605 7.98947 2.88922L7.98854 2.8901C7.85982 3.01882 7.75771 3.17164 7.68804 3.33982C7.61838 3.508 7.58252 3.68826 7.58252 3.8703C7.58252 4.05234 7.61838 4.2326 7.68804 4.40078C7.75771 4.56896 7.85982 4.72178 7.98854 4.8505L10.3429 7.20484Z" stroke="white" stroke-width="1.5" stroke-miterlimit="10" stroke-linecap="round" stroke-linejoin="round"/>
<path d="M13.2844 18.7759L17.9914 23.4829" stroke="white" stroke-width="1.5" stroke-miterlimit="10" stroke-linecap="round" stroke-linejoin="round"/>
<path d="M20.345 13.2843L24.2675 17.2068" stroke="white" stroke-width="1.5" stroke-miterlimit="10" stroke-linecap="round" stroke-linejoin="round"/>
<path d="M4.65492 13.2843L0.732422 17.2068" stroke="white" stroke-width="1.5" stroke-miterlimit="10" stroke-linecap="round" stroke-linejoin="round"/>
<path d="M10.1465 3.08594L13.2845 1.51695L14.8535 3.08594" stroke="white" stroke-width="1.5" stroke-miterlimit="10" stroke-linecap="round" stroke-linejoin="round"/>
</g>
</svg>
